===============================================================================
 Language            Files        Lines         Code     Comments       Blanks
===============================================================================
 JSON                    4         8644         8644            0            0
 ReStructuredText        1           69           47            0           22
 Markdown                4          982            0          728          254
 Plain Text              8         1663            0         1457          206
-------------------------------------------------------------------------------
 HTML                    1           35           22            0           13
 |- CSS                  1           49           49            0            0
 (Total)                             84           71            0           13
===============================================================================
 Total                  18        11393         8713         2185          495
===============================================================================
