.
├── CODE_OF_CONDUCT.md
├── CODE_OF_CONDUCT.txt
├── CODE_OF_CONDUCT_DE.md
├── CODE_OF_CONDUCT_DE.txt
├── LICENSE
├── SECURITY.md
├── SECURITY.rst
├── Vulnerability_Disclosure_Policy.md
├── content_long_list.txt
├── content_summary.txt
├── dataset
├── dep
├── example
│   ├── Curriculum_Vitae_Pierre_Gronau_EN_2024-01-03.docx
│   ├── Curriculum_Vitae_Pierre_Gronau_EN_2024-01-03.odt
│   ├── Curriculum_Vitae_Pierre_Gronau_EN_2024-01-03.pdf
│   ├── Curriculum_Vitae_Pierre_Gronau_EN_2024-01-04.docx
│   ├── Curriculum_Vitae_Pierre_Gronau_EN_2024-01-04.odt
│   ├── Curriculum_Vitae_Pierre_Gronau_EN_2024-01-04.pdf
│   ├── Curriculum_Vitae_Pierre_Gronau_EN_2024-01-06.docx
│   ├── Curriculum_Vitae_Pierre_Gronau_EN_2024-01-06.odt
│   ├── Curriculum_Vitae_Pierre_Gronau_EN_2024-01-06.pdf
│   ├── Curriculum_Vitae_Pierre_Gronau_EN_2024-01-07.docx
│   ├── Curriculum_Vitae_Pierre_Gronau_EN_2024-01-07.odt
│   ├── Curriculum_Vitae_Pierre_Gronau_EN_2024-01-07.pdf
│   ├── Curriculum_Vitae_Pierre_Gronau_EN_2024-01-08.docx
│   ├── Curriculum_Vitae_Pierre_Gronau_EN_2024-01-08.odt
│   ├── Curriculum_Vitae_Pierre_Gronau_EN_2024-01-08.pdf
│   ├── Curriculum_Vitae_Pierre_Gronau_EN_2024-01-09.docx
│   ├── Curriculum_Vitae_Pierre_Gronau_EN_2024-01-09.odt
│   ├── Curriculum_Vitae_Pierre_Gronau_EN_2024-01-09.pdf
│   ├── Curriculum_Vitae_Pierre_Gronau_EN_2024-01-11.docx
│   ├── Curriculum_Vitae_Pierre_Gronau_EN_2024-01-11.odt
│   ├── Curriculum_Vitae_Pierre_Gronau_EN_2024-01-11.pdf
│   ├── Curriculum_Vitae_Pierre_Gronau_EN_2024-01-12.docx
│   ├── Curriculum_Vitae_Pierre_Gronau_EN_2024-01-12.odt
│   ├── Curriculum_Vitae_Pierre_Gronau_EN_2024-01-12.pdf
│   ├── Curriculum_Vitae_Pierre_Gronau_EN_2024-01-15.docx
│   ├── Curriculum_Vitae_Pierre_Gronau_EN_2024-01-15.odt
│   ├── Curriculum_Vitae_Pierre_Gronau_EN_2024-01-15.pdf
│   ├── Curriculum_Vitae_Pierre_Gronau_EN_2024-01-17.docx
│   ├── Curriculum_Vitae_Pierre_Gronau_EN_2024-01-17.odt
│   ├── Curriculum_Vitae_Pierre_Gronau_EN_2024-01-17.pdf
│   ├── Curriculum_Vitae_Pierre_Gronau_EN_2024-01-18.docx
│   ├── Curriculum_Vitae_Pierre_Gronau_EN_2024-01-18.odt
│   ├── Curriculum_Vitae_Pierre_Gronau_EN_2024-01-18.pdf
│   ├── Curriculum_Vitae_Pierre_Gronau_EN_2024-01-19.docx
│   ├── Curriculum_Vitae_Pierre_Gronau_EN_2024-01-19.odt
│   ├── Curriculum_Vitae_Pierre_Gronau_EN_2024-01-19.pdf
│   ├── Curriculum_Vitae_Pierre_Gronau_EN_2024-01-20.docx
│   ├── Curriculum_Vitae_Pierre_Gronau_EN_2024-01-20.odt
│   ├── Curriculum_Vitae_Pierre_Gronau_EN_2024-01-20.pdf
│   ├── Curriculum_Vitae_Pierre_Gronau_EN_2024-01-22.docx
│   ├── Curriculum_Vitae_Pierre_Gronau_EN_2024-01-22.odt
│   ├── Curriculum_Vitae_Pierre_Gronau_EN_2024-01-22.pdf
│   ├── Curriculum_Vitae_Pierre_Gronau_EN_2024-01-23.docx
│   ├── Curriculum_Vitae_Pierre_Gronau_EN_2024-01-23.odt
│   ├── Curriculum_Vitae_Pierre_Gronau_EN_2024-01-23.pdf
│   ├── Curriculum_Vitae_Pierre_Gronau_EN_2024-01-26.docx
│   ├── Curriculum_Vitae_Pierre_Gronau_EN_2024-01-26.odt
│   ├── Curriculum_Vitae_Pierre_Gronau_EN_2024-01-26.pdf
│   ├── Curriculum_Vitae_Pierre_Gronau_EN_2024-01-27.docx
│   ├── Curriculum_Vitae_Pierre_Gronau_EN_2024-01-27.odt
│   ├── Curriculum_Vitae_Pierre_Gronau_EN_2024-01-27.pdf
│   ├── Curriculum_Vitae_Pierre_Gronau_EN_2024-01-28.docx
│   ├── Curriculum_Vitae_Pierre_Gronau_EN_2024-01-28.odt
│   ├── Curriculum_Vitae_Pierre_Gronau_EN_2024-01-28.pdf
│   ├── Curriculum_Vitae_Pierre_Gronau_EN_2024-01-31.docx
│   ├── Curriculum_Vitae_Pierre_Gronau_EN_2024-01-31.odt
│   ├── Curriculum_Vitae_Pierre_Gronau_EN_2024-01-31.pdf
│   ├── Curriculum_Vitae_Pierre_Gronau_EN_2024-02-03.docx
│   ├── Curriculum_Vitae_Pierre_Gronau_EN_2024-02-03.odt
│   ├── Curriculum_Vitae_Pierre_Gronau_EN_2024-02-03.pdf
│   ├── Curriculum_Vitae_Pierre_Gronau_EN_2024-02-05.docx
│   ├── Curriculum_Vitae_Pierre_Gronau_EN_2024-02-05.odt
│   ├── Curriculum_Vitae_Pierre_Gronau_EN_2024-02-05.pdf
│   ├── Curriculum_Vitae_Pierre_Gronau_EN_2024-02-07.docx
│   ├── Curriculum_Vitae_Pierre_Gronau_EN_2024-02-07.odt
│   ├── Curriculum_Vitae_Pierre_Gronau_EN_2024-02-07.pdf
│   ├── Curriculum_Vitae_Pierre_Gronau_EN_2024-02-09.docx
│   ├── Curriculum_Vitae_Pierre_Gronau_EN_2024-02-09.odt
│   ├── Curriculum_Vitae_Pierre_Gronau_EN_2024-02-09.pdf
│   ├── Curriculum_Vitae_Pierre_Gronau_EN_2024-02-10.docx
│   ├── Curriculum_Vitae_Pierre_Gronau_EN_2024-02-10.odt
│   ├── Curriculum_Vitae_Pierre_Gronau_EN_2024-02-10.pdf
│   ├── Curriculum_Vitae_Pierre_Gronau_EN_2024-02-14.docx
│   ├── Curriculum_Vitae_Pierre_Gronau_EN_2024-02-14.odt
│   ├── Curriculum_Vitae_Pierre_Gronau_EN_2024-02-14.pdf
│   ├── Curriculum_Vitae_Pierre_Gronau_EN_2024-02-15.docx
│   ├── Curriculum_Vitae_Pierre_Gronau_EN_2024-02-15.odt
│   ├── Curriculum_Vitae_Pierre_Gronau_EN_2024-02-15.pdf
│   ├── Curriculum_Vitae_Pierre_Gronau_EN_2024-02-20.docx
│   ├── Curriculum_Vitae_Pierre_Gronau_EN_2024-02-20.odt
│   ├── Curriculum_Vitae_Pierre_Gronau_EN_2024-02-20.pdf
│   ├── Curriculum_Vitae_Pierre_Gronau_EN_2024-02-22.docx
│   ├── Curriculum_Vitae_Pierre_Gronau_EN_2024-02-22.odt
│   ├── Curriculum_Vitae_Pierre_Gronau_EN_2024-02-22.pdf
│   ├── Curriculum_Vitae_Pierre_Gronau_EN_2024-02-25.docx
│   ├── Curriculum_Vitae_Pierre_Gronau_EN_2024-02-25.odt
│   ├── Curriculum_Vitae_Pierre_Gronau_EN_2024-02-25.pdf
│   ├── Curriculum_Vitae_Pierre_Gronau_EN_2024-02-26.docx
│   ├── Curriculum_Vitae_Pierre_Gronau_EN_2024-02-26.odt
│   ├── Curriculum_Vitae_Pierre_Gronau_EN_2024-02-26.pdf
│   ├── Curriculum_Vitae_Pierre_Gronau_EN_2024-03-07.docx
│   ├── Curriculum_Vitae_Pierre_Gronau_EN_2024-03-07.odt
│   ├── Curriculum_Vitae_Pierre_Gronau_EN_2024-03-07.pdf
│   ├── Curriculum_Vitae_Pierre_Gronau_EN_2024-03-08.docx
│   ├── Curriculum_Vitae_Pierre_Gronau_EN_2024-03-08.odt
│   ├── Curriculum_Vitae_Pierre_Gronau_EN_2024-03-08.pdf
│   ├── Curriculum_Vitae_Pierre_Gronau_EN_2024-03-10.docx
│   ├── Curriculum_Vitae_Pierre_Gronau_EN_2024-03-10.odt
│   ├── Curriculum_Vitae_Pierre_Gronau_EN_2024-03-10.pdf
│   ├── Curriculum_Vitae_Pierre_Gronau_EN_2024-03-11.docx
│   ├── Curriculum_Vitae_Pierre_Gronau_EN_2024-03-11.odt
│   ├── Curriculum_Vitae_Pierre_Gronau_EN_2024-03-11.pdf
│   ├── Curriculum_Vitae_Pierre_Gronau_EN_2024-03-13.docx
│   ├── Curriculum_Vitae_Pierre_Gronau_EN_2024-03-13.odt
│   ├── Curriculum_Vitae_Pierre_Gronau_EN_2024-03-13.pdf
│   ├── Curriculum_Vitae_Pierre_Gronau_EN_2024-03-18.docx
│   ├── Curriculum_Vitae_Pierre_Gronau_EN_2024-03-18.odt
│   ├── Curriculum_Vitae_Pierre_Gronau_EN_2024-03-18.pdf
│   ├── Curriculum_Vitae_Pierre_Gronau_EN_2024-03-20.docx
│   ├── Curriculum_Vitae_Pierre_Gronau_EN_2024-03-20.odt
│   ├── Curriculum_Vitae_Pierre_Gronau_EN_2024-03-20.pdf
│   ├── Curriculum_Vitae_Pierre_Gronau_EN_2024-03-23.docx
│   ├── Curriculum_Vitae_Pierre_Gronau_EN_2024-03-23.odt
│   ├── Curriculum_Vitae_Pierre_Gronau_EN_2024-03-23.pdf
│   ├── Curriculum_Vitae_Pierre_Gronau_EN_2024-03-24.docx
│   ├── Curriculum_Vitae_Pierre_Gronau_EN_2024-03-24.odt
│   ├── Curriculum_Vitae_Pierre_Gronau_EN_2024-03-24.pdf
│   ├── Curriculum_Vitae_Pierre_Gronau_EN_2024-03-26.docx
│   ├── Curriculum_Vitae_Pierre_Gronau_EN_2024-03-26.odt
│   ├── Curriculum_Vitae_Pierre_Gronau_EN_2024-03-26.pdf
│   ├── Curriculum_Vitae_Pierre_Gronau_EN_2024-03-27.docx
│   ├── Curriculum_Vitae_Pierre_Gronau_EN_2024-03-27.odt
│   ├── Curriculum_Vitae_Pierre_Gronau_EN_2024-03-27.pdf
│   ├── Curriculum_Vitae_Pierre_Gronau_EN_2024-03-30.docx
│   ├── Curriculum_Vitae_Pierre_Gronau_EN_2024-03-30.odt
│   ├── Curriculum_Vitae_Pierre_Gronau_EN_2024-03-30.pdf
│   ├── Curriculum_Vitae_Pierre_Gronau_EN_2024-04-03.docx
│   ├── Curriculum_Vitae_Pierre_Gronau_EN_2024-04-03.odt
│   ├── Curriculum_Vitae_Pierre_Gronau_EN_2024-04-03.pdf
│   ├── Curriculum_Vitae_Pierre_Gronau_EN_2024-04-04.docx
│   ├── Curriculum_Vitae_Pierre_Gronau_EN_2024-04-04.odt
│   ├── Curriculum_Vitae_Pierre_Gronau_EN_2024-04-04.pdf
│   ├── Curriculum_Vitae_Pierre_Gronau_EN_2024-04-06.docx
│   ├── Curriculum_Vitae_Pierre_Gronau_EN_2024-04-06.odt
│   ├── Curriculum_Vitae_Pierre_Gronau_EN_2024-04-06.pdf
│   ├── Curriculum_Vitae_Pierre_Gronau_EN_2024-04-07.docx
│   ├── Curriculum_Vitae_Pierre_Gronau_EN_2024-04-07.odt
│   ├── Curriculum_Vitae_Pierre_Gronau_EN_2024-04-07.pdf
│   ├── Curriculum_Vitae_Pierre_Gronau_EN_2024-04-08.docx
│   ├── Curriculum_Vitae_Pierre_Gronau_EN_2024-04-08.odt
│   ├── Curriculum_Vitae_Pierre_Gronau_EN_2024-04-08.pdf
│   ├── Curriculum_Vitae_Pierre_Gronau_EN_2024-04-09.docx
│   ├── Curriculum_Vitae_Pierre_Gronau_EN_2024-04-09.odt
│   ├── Curriculum_Vitae_Pierre_Gronau_EN_2024-04-09.pdf
│   ├── Curriculum_Vitae_Pierre_Gronau_EN_2024-04-10.docx
│   ├── Curriculum_Vitae_Pierre_Gronau_EN_2024-04-10.odt
│   ├── Curriculum_Vitae_Pierre_Gronau_EN_2024-04-10.pdf
│   ├── Curriculum_Vitae_Pierre_Gronau_EN_2024-04-11.docx
│   ├── Curriculum_Vitae_Pierre_Gronau_EN_2024-04-11.odt
│   ├── Curriculum_Vitae_Pierre_Gronau_EN_2024-04-11.pdf
│   ├── Curriculum_Vitae_Pierre_Gronau_EN_2024-04-12.docx
│   ├── Curriculum_Vitae_Pierre_Gronau_EN_2024-04-12.odt
│   ├── Curriculum_Vitae_Pierre_Gronau_EN_2024-04-12.pdf
│   ├── Curriculum_Vitae_Pierre_Gronau_EN_2024-04-13.docx
│   ├── Curriculum_Vitae_Pierre_Gronau_EN_2024-04-13.odt
│   ├── Curriculum_Vitae_Pierre_Gronau_EN_2024-04-13.pdf
│   ├── Curriculum_Vitae_Pierre_Gronau_EN_2024-04-14.docx
│   ├── Curriculum_Vitae_Pierre_Gronau_EN_2024-04-14.odt
│   ├── Curriculum_Vitae_Pierre_Gronau_EN_2024-04-14.pdf
│   ├── Curriculum_Vitae_Pierre_Gronau_EN_2024-04-20.docx
│   ├── Curriculum_Vitae_Pierre_Gronau_EN_2024-04-20.odt
│   ├── Curriculum_Vitae_Pierre_Gronau_EN_2024-04-20.pdf
│   ├── Curriculum_Vitae_Pierre_Gronau_EN_2024-04-21.docx
│   ├── Curriculum_Vitae_Pierre_Gronau_EN_2024-04-21.odt
│   ├── Curriculum_Vitae_Pierre_Gronau_EN_2024-04-21.pdf
│   ├── Curriculum_Vitae_Pierre_Gronau_EN_2024-04-22.docx
│   ├── Curriculum_Vitae_Pierre_Gronau_EN_2024-04-22.odt
│   ├── Curriculum_Vitae_Pierre_Gronau_EN_2024-04-22.pdf
│   ├── Curriculum_Vitae_Pierre_Gronau_EN_2024-04-24.docx
│   ├── Curriculum_Vitae_Pierre_Gronau_EN_2024-04-24.odt
│   ├── Curriculum_Vitae_Pierre_Gronau_EN_2024-04-24.pdf
│   ├── Curriculum_Vitae_Pierre_Gronau_EN_2024-04-25.docx
│   ├── Curriculum_Vitae_Pierre_Gronau_EN_2024-04-25.odt
│   ├── Curriculum_Vitae_Pierre_Gronau_EN_2024-04-25.pdf
│   ├── Curriculum_Vitae_Pierre_Gronau_EN_2024-04-26.docx
│   ├── Curriculum_Vitae_Pierre_Gronau_EN_2024-04-26.odt
│   ├── Curriculum_Vitae_Pierre_Gronau_EN_2024-04-26.pdf
│   ├── Curriculum_Vitae_Pierre_Gronau_EN_2024-04-27.docx
│   ├── Curriculum_Vitae_Pierre_Gronau_EN_2024-04-27.odt
│   ├── Curriculum_Vitae_Pierre_Gronau_EN_2024-04-27.pdf
│   ├── Curriculum_Vitae_Pierre_Gronau_EN_2024-04-28.docx
│   ├── Curriculum_Vitae_Pierre_Gronau_EN_2024-04-28.odt
│   ├── Curriculum_Vitae_Pierre_Gronau_EN_2024-04-28.pdf
│   ├── Curriculum_Vitae_Pierre_Gronau_EN_2024-04-29.docx
│   ├── Curriculum_Vitae_Pierre_Gronau_EN_2024-04-29.odt
│   ├── Curriculum_Vitae_Pierre_Gronau_EN_2024-04-29.pdf
│   ├── Curriculum_Vitae_Pierre_Gronau_EN_2024-04-30.docx
│   ├── Curriculum_Vitae_Pierre_Gronau_EN_2024-04-30.odt
│   ├── Curriculum_Vitae_Pierre_Gronau_EN_2024-04-30.pdf
│   ├── Curriculum_Vitae_Pierre_Gronau_EN_2024-05-04.docx
│   ├── Curriculum_Vitae_Pierre_Gronau_EN_2024-05-04.odt
│   ├── Curriculum_Vitae_Pierre_Gronau_EN_2024-05-04.pdf
│   ├── Curriculum_Vitae_Pierre_Gronau_EN_2024-05-05.docx
│   ├── Curriculum_Vitae_Pierre_Gronau_EN_2024-05-05.odt
│   ├── Curriculum_Vitae_Pierre_Gronau_EN_2024-05-05.pdf
│   ├── Curriculum_Vitae_Pierre_Gronau_EN_2024-05-15.docx
│   ├── Curriculum_Vitae_Pierre_Gronau_EN_2024-05-15.odt
│   ├── Curriculum_Vitae_Pierre_Gronau_EN_2024-05-15.pdf
│   ├── Curriculum_Vitae_Pierre_Gronau_EN_2024-05-16.docx
│   ├── Curriculum_Vitae_Pierre_Gronau_EN_2024-05-16.odt
│   ├── Curriculum_Vitae_Pierre_Gronau_EN_2024-05-16.pdf
│   ├── Curriculum_Vitae_Pierre_Gronau_EN_2024-05-17.docx
│   ├── Curriculum_Vitae_Pierre_Gronau_EN_2024-05-17.odt
│   ├── Curriculum_Vitae_Pierre_Gronau_EN_2024-05-17.pdf
│   ├── Curriculum_Vitae_Pierre_Gronau_EN_2024-05-18.docx
│   ├── Curriculum_Vitae_Pierre_Gronau_EN_2024-05-18.odt
│   ├── Curriculum_Vitae_Pierre_Gronau_EN_2024-05-18.pdf
│   ├── Curriculum_Vitae_Pierre_Gronau_EN_2024-05-19.docx
│   ├── Curriculum_Vitae_Pierre_Gronau_EN_2024-05-19.odt
│   ├── Curriculum_Vitae_Pierre_Gronau_EN_2024-05-19.pdf
│   ├── Curriculum_Vitae_Pierre_Gronau_EN_2024-05-22.docx
│   ├── Curriculum_Vitae_Pierre_Gronau_EN_2024-05-22.odt
│   ├── Curriculum_Vitae_Pierre_Gronau_EN_2024-05-22.pdf
│   ├── Curriculum_Vitae_Pierre_Gronau_EN_2024-05-23.docx
│   ├── Curriculum_Vitae_Pierre_Gronau_EN_2024-05-23.odt
│   ├── Curriculum_Vitae_Pierre_Gronau_EN_2024-05-23.pdf
│   ├── Curriculum_Vitae_Pierre_Gronau_EN_2024-05-24.docx
│   ├── Curriculum_Vitae_Pierre_Gronau_EN_2024-05-24.odt
│   ├── Curriculum_Vitae_Pierre_Gronau_EN_2024-05-24.pdf
│   ├── Curriculum_Vitae_Pierre_Gronau_EN_2024-05-27.docx
│   ├── Curriculum_Vitae_Pierre_Gronau_EN_2024-05-27.odt
│   ├── Curriculum_Vitae_Pierre_Gronau_EN_2024-05-27.pdf
│   ├── Curriculum_Vitae_Pierre_Gronau_EN_2024-05-28.docx
│   ├── Curriculum_Vitae_Pierre_Gronau_EN_2024-05-28.odt
│   ├── Curriculum_Vitae_Pierre_Gronau_EN_2024-05-28.pdf
│   ├── Curriculum_Vitae_Pierre_Gronau_EN_2024-05-29.docx
│   ├── Curriculum_Vitae_Pierre_Gronau_EN_2024-05-29.odt
│   ├── Curriculum_Vitae_Pierre_Gronau_EN_2024-05-29.pdf
│   ├── Curriculum_Vitae_Pierre_Gronau_EN_2024-05-30.docx
│   ├── Curriculum_Vitae_Pierre_Gronau_EN_2024-05-30.odt
│   ├── Curriculum_Vitae_Pierre_Gronau_EN_2024-05-30.pdf
│   ├── Curriculum_Vitae_Pierre_Gronau_EN_2024-05-31.docx
│   ├── Curriculum_Vitae_Pierre_Gronau_EN_2024-05-31.odt
│   ├── Curriculum_Vitae_Pierre_Gronau_EN_2024-05-31.pdf
│   ├── Curriculum_Vitae_Pierre_Gronau_EN_2024-06-03.docx
│   ├── Curriculum_Vitae_Pierre_Gronau_EN_2024-06-03.odt
│   ├── Curriculum_Vitae_Pierre_Gronau_EN_2024-06-03.pdf
│   ├── Curriculum_Vitae_Pierre_Gronau_EN_2024-06-05.docx
│   ├── Curriculum_Vitae_Pierre_Gronau_EN_2024-06-05.odt
│   ├── Curriculum_Vitae_Pierre_Gronau_EN_2024-06-05.pdf
│   ├── Curriculum_Vitae_Pierre_Gronau_EN_2024-06-06.docx
│   ├── Curriculum_Vitae_Pierre_Gronau_EN_2024-06-06.odt
│   ├── Curriculum_Vitae_Pierre_Gronau_EN_2024-06-06.pdf
│   ├── Curriculum_Vitae_Pierre_Gronau_EN_2024-06-07.docx
│   ├── Curriculum_Vitae_Pierre_Gronau_EN_2024-06-07.odt
│   ├── Curriculum_Vitae_Pierre_Gronau_EN_2024-06-07.pdf
│   ├── Curriculum_Vitae_Pierre_Gronau_EN_2024-06-10.docx
│   ├── Curriculum_Vitae_Pierre_Gronau_EN_2024-06-10.odt
│   ├── Curriculum_Vitae_Pierre_Gronau_EN_2024-06-10.pdf
│   ├── Curriculum_Vitae_Pierre_Gronau_EN_2024-06-11.docx
│   ├── Curriculum_Vitae_Pierre_Gronau_EN_2024-06-11.odt
│   ├── Curriculum_Vitae_Pierre_Gronau_EN_2024-06-11.pdf
│   ├── Curriculum_Vitae_Pierre_Gronau_EN_2024-06-17.docx
│   ├── Curriculum_Vitae_Pierre_Gronau_EN_2024-06-17.odt
│   ├── Curriculum_Vitae_Pierre_Gronau_EN_2024-06-18.docx
│   └── Curriculum_Vitae_Pierre_Gronau_EN_2024-06-18.odt
├── humans.txt
├── ndaal_CVs_all
│   ├── Curriculum_Vitae_Andre_Breuer_2024-06-18.docx
│   ├── Curriculum_Vitae_Andre_Breuer_2024-06-18.docx.blake2b
│   ├── Curriculum_Vitae_Andre_Breuer_2024-06-18.docx.blake3
│   ├── Curriculum_Vitae_Andre_Breuer_2024-06-18.docx.k12
│   ├── Curriculum_Vitae_Andre_Breuer_2024-06-18.docx.sha-3-512
│   ├── Curriculum_Vitae_Andre_Breuer_2024-06-18.docx.twoxhash
│   ├── Curriculum_Vitae_Andre_Breuer_2024-06-18.odt
│   ├── Curriculum_Vitae_Andre_Breuer_2024-06-18.odt.blake2b
│   ├── Curriculum_Vitae_Andre_Breuer_2024-06-18.odt.blake3
│   ├── Curriculum_Vitae_Andre_Breuer_2024-06-18.odt.k12
│   ├── Curriculum_Vitae_Andre_Breuer_2024-06-18.odt.sha-3-512
│   ├── Curriculum_Vitae_Andre_Breuer_2024-06-18.odt.twoxhash
│   ├── Curriculum_Vitae_Ayesha_Shafqat_2024-06-18.docx
│   ├── Curriculum_Vitae_Ayesha_Shafqat_2024-06-18.docx.blake2b
│   ├── Curriculum_Vitae_Ayesha_Shafqat_2024-06-18.docx.blake3
│   ├── Curriculum_Vitae_Ayesha_Shafqat_2024-06-18.docx.k12
│   ├── Curriculum_Vitae_Ayesha_Shafqat_2024-06-18.docx.sha-3-512
│   ├── Curriculum_Vitae_Ayesha_Shafqat_2024-06-18.docx.twoxhash
│   ├── Curriculum_Vitae_Ayesha_Shafqat_2024-06-18.odt
│   ├── Curriculum_Vitae_Ayesha_Shafqat_2024-06-18.odt.blake2b
│   ├── Curriculum_Vitae_Ayesha_Shafqat_2024-06-18.odt.blake3
│   ├── Curriculum_Vitae_Ayesha_Shafqat_2024-06-18.odt.k12
│   ├── Curriculum_Vitae_Ayesha_Shafqat_2024-06-18.odt.sha-3-512
│   ├── Curriculum_Vitae_Ayesha_Shafqat_2024-06-18.odt.twoxhash
│   ├── Curriculum_Vitae_Carsten_Dingendahl_DE_2024-06-18.docx
│   ├── Curriculum_Vitae_Carsten_Dingendahl_DE_2024-06-18.docx.blake2b
│   ├── Curriculum_Vitae_Carsten_Dingendahl_DE_2024-06-18.docx.blake3
│   ├── Curriculum_Vitae_Carsten_Dingendahl_DE_2024-06-18.docx.k12
│   ├── Curriculum_Vitae_Carsten_Dingendahl_DE_2024-06-18.docx.sha-3-512
│   ├── Curriculum_Vitae_Carsten_Dingendahl_DE_2024-06-18.docx.twoxhash
│   ├── Curriculum_Vitae_Carsten_Dingendahl_DE_2024-06-18.odt
│   ├── Curriculum_Vitae_Carsten_Dingendahl_DE_2024-06-18.odt.blake2b
│   ├── Curriculum_Vitae_Carsten_Dingendahl_DE_2024-06-18.odt.blake3
│   ├── Curriculum_Vitae_Carsten_Dingendahl_DE_2024-06-18.odt.k12
│   ├── Curriculum_Vitae_Carsten_Dingendahl_DE_2024-06-18.odt.sha-3-512
│   ├── Curriculum_Vitae_Carsten_Dingendahl_DE_2024-06-18.odt.twoxhash
│   ├── Curriculum_Vitae_Carsten_Dingendahl_EN_2024-06-18.docx
│   ├── Curriculum_Vitae_Carsten_Dingendahl_EN_2024-06-18.docx.blake2b
│   ├── Curriculum_Vitae_Carsten_Dingendahl_EN_2024-06-18.docx.blake3
│   ├── Curriculum_Vitae_Carsten_Dingendahl_EN_2024-06-18.docx.k12
│   ├── Curriculum_Vitae_Carsten_Dingendahl_EN_2024-06-18.docx.sha-3-512
│   ├── Curriculum_Vitae_Carsten_Dingendahl_EN_2024-06-18.docx.twoxhash
│   ├── Curriculum_Vitae_Carsten_Dingendahl_EN_2024-06-18.odt
│   ├── Curriculum_Vitae_Carsten_Dingendahl_EN_2024-06-18.odt.blake2b
│   ├── Curriculum_Vitae_Carsten_Dingendahl_EN_2024-06-18.odt.blake3
│   ├── Curriculum_Vitae_Carsten_Dingendahl_EN_2024-06-18.odt.k12
│   ├── Curriculum_Vitae_Carsten_Dingendahl_EN_2024-06-18.odt.sha-3-512
│   ├── Curriculum_Vitae_Carsten_Dingendahl_EN_2024-06-18.odt.twoxhash
│   ├── Curriculum_Vitae_Kyal_Smith_2024-06-18.docx
│   ├── Curriculum_Vitae_Kyal_Smith_2024-06-18.docx.blake2b
│   ├── Curriculum_Vitae_Kyal_Smith_2024-06-18.docx.blake3
│   ├── Curriculum_Vitae_Kyal_Smith_2024-06-18.docx.k12
│   ├── Curriculum_Vitae_Kyal_Smith_2024-06-18.docx.sha-3-512
│   ├── Curriculum_Vitae_Kyal_Smith_2024-06-18.docx.twoxhash
│   ├── Curriculum_Vitae_Kyal_Smith_2024-06-18.odt
│   ├── Curriculum_Vitae_Kyal_Smith_2024-06-18.odt.blake2b
│   ├── Curriculum_Vitae_Kyal_Smith_2024-06-18.odt.blake3
│   ├── Curriculum_Vitae_Kyal_Smith_2024-06-18.odt.k12
│   ├── Curriculum_Vitae_Kyal_Smith_2024-06-18.odt.sha-3-512
│   ├── Curriculum_Vitae_Kyal_Smith_2024-06-18.odt.twoxhash
│   ├── Curriculum_Vitae_Mamoona_Aslam_2024-06-18.docx
│   ├── Curriculum_Vitae_Mamoona_Aslam_2024-06-18.docx.blake2b
│   ├── Curriculum_Vitae_Mamoona_Aslam_2024-06-18.docx.blake3
│   ├── Curriculum_Vitae_Mamoona_Aslam_2024-06-18.docx.k12
│   ├── Curriculum_Vitae_Mamoona_Aslam_2024-06-18.docx.sha-3-512
│   ├── Curriculum_Vitae_Mamoona_Aslam_2024-06-18.docx.twoxhash
│   ├── Curriculum_Vitae_Mamoona_Aslam_2024-06-18.odt
│   ├── Curriculum_Vitae_Mamoona_Aslam_2024-06-18.odt.blake2b
│   ├── Curriculum_Vitae_Mamoona_Aslam_2024-06-18.odt.blake3
│   ├── Curriculum_Vitae_Mamoona_Aslam_2024-06-18.odt.k12
│   ├── Curriculum_Vitae_Mamoona_Aslam_2024-06-18.odt.sha-3-512
│   ├── Curriculum_Vitae_Mamoona_Aslam_2024-06-18.odt.twoxhash
│   ├── Curriculum_Vitae_Pierre_Gronau_DE_2024-06-18.docx
│   ├── Curriculum_Vitae_Pierre_Gronau_DE_2024-06-18.docx.blake2b
│   ├── Curriculum_Vitae_Pierre_Gronau_DE_2024-06-18.docx.blake3
│   ├── Curriculum_Vitae_Pierre_Gronau_DE_2024-06-18.docx.k12
│   ├── Curriculum_Vitae_Pierre_Gronau_DE_2024-06-18.docx.sha-3-512
│   ├── Curriculum_Vitae_Pierre_Gronau_DE_2024-06-18.docx.twoxhash
│   ├── Curriculum_Vitae_Pierre_Gronau_DE_2024-06-18.odt
│   ├── Curriculum_Vitae_Pierre_Gronau_DE_2024-06-18.odt.blake2b
│   ├── Curriculum_Vitae_Pierre_Gronau_DE_2024-06-18.odt.blake3
│   ├── Curriculum_Vitae_Pierre_Gronau_DE_2024-06-18.odt.k12
│   ├── Curriculum_Vitae_Pierre_Gronau_DE_2024-06-18.odt.sha-3-512
│   ├── Curriculum_Vitae_Pierre_Gronau_DE_2024-06-18.odt.twoxhash
│   ├── Curriculum_Vitae_Pierre_Gronau_EN_2024-06-18.docx
│   ├── Curriculum_Vitae_Pierre_Gronau_EN_2024-06-18.docx.blake2b
│   ├── Curriculum_Vitae_Pierre_Gronau_EN_2024-06-18.docx.blake3
│   ├── Curriculum_Vitae_Pierre_Gronau_EN_2024-06-18.docx.k12
│   ├── Curriculum_Vitae_Pierre_Gronau_EN_2024-06-18.docx.sha-3-512
│   ├── Curriculum_Vitae_Pierre_Gronau_EN_2024-06-18.docx.twoxhash
│   ├── Curriculum_Vitae_Pierre_Gronau_EN_2024-06-18.odt
│   ├── Curriculum_Vitae_Pierre_Gronau_EN_2024-06-18.odt.blake2b
│   ├── Curriculum_Vitae_Pierre_Gronau_EN_2024-06-18.odt.blake3
│   ├── Curriculum_Vitae_Pierre_Gronau_EN_2024-06-18.odt.k12
│   ├── Curriculum_Vitae_Pierre_Gronau_EN_2024-06-18.odt.sha-3-512
│   ├── Curriculum_Vitae_Pierre_Gronau_EN_2024-06-18.odt.twoxhash
│   ├── Curriculum_Vitae_Tobias_Feuling_2024-06-18.docx
│   ├── Curriculum_Vitae_Tobias_Feuling_2024-06-18.docx.blake2b
│   ├── Curriculum_Vitae_Tobias_Feuling_2024-06-18.docx.blake3
│   ├── Curriculum_Vitae_Tobias_Feuling_2024-06-18.docx.k12
│   ├── Curriculum_Vitae_Tobias_Feuling_2024-06-18.docx.sha-3-512
│   ├── Curriculum_Vitae_Tobias_Feuling_2024-06-18.docx.twoxhash
│   ├── Curriculum_Vitae_Tobias_Feuling_2024-06-18.odt
│   ├── Curriculum_Vitae_Tobias_Feuling_2024-06-18.odt.blake2b
│   ├── Curriculum_Vitae_Tobias_Feuling_2024-06-18.odt.blake3
│   ├── Curriculum_Vitae_Tobias_Feuling_2024-06-18.odt.k12
│   ├── Curriculum_Vitae_Tobias_Feuling_2024-06-18.odt.sha-3-512
│   └── Curriculum_Vitae_Tobias_Feuling_2024-06-18.odt.twoxhash
├── ndaal_Company_Presentation
│   ├── 20240111_ndaal_Company_Presentation_ger.pdf
│   ├── 20240111_ndaal_Company_Presentation_ger.pptx
│   ├── 20240311_ndaal_Company_Presentation_-_version6_eng_v2.pdf
│   └── 20240311_ndaal_Company_Presentation_-_version6_eng_v2.pptx
├── repo_check_results
│   ├── bomber.html
│   ├── bomber.json
│   ├── osv_repo.json
│   └── osv_sbom.json
├── res
├── robots.txt
├── robots.txt.blake2b
├── robots.txt.blake3
├── sbom.json
├── security.txt
├── src
├── structure.txt
├── test
│   ├── Curriculum_Vitae_Carsten_Dingendahl_EN_2024-01-03.docx
│   ├── Curriculum_Vitae_Carsten_Dingendahl_EN_2024-01-03.odt
│   ├── Curriculum_Vitae_Carsten_Dingendahl_EN_2024-01-03.pdf
│   ├── Curriculum_Vitae_Carsten_Dingendahl_EN_2024-01-04.docx
│   ├── Curriculum_Vitae_Carsten_Dingendahl_EN_2024-01-04.odt
│   ├── Curriculum_Vitae_Carsten_Dingendahl_EN_2024-01-04.pdf
│   ├── Curriculum_Vitae_Carsten_Dingendahl_EN_2024-01-06.docx
│   ├── Curriculum_Vitae_Carsten_Dingendahl_EN_2024-01-06.odt
│   ├── Curriculum_Vitae_Carsten_Dingendahl_EN_2024-01-06.pdf
│   ├── Curriculum_Vitae_Carsten_Dingendahl_EN_2024-01-07.docx
│   ├── Curriculum_Vitae_Carsten_Dingendahl_EN_2024-01-07.odt
│   ├── Curriculum_Vitae_Carsten_Dingendahl_EN_2024-01-07.pdf
│   ├── Curriculum_Vitae_Carsten_Dingendahl_EN_2024-01-08.docx
│   ├── Curriculum_Vitae_Carsten_Dingendahl_EN_2024-01-08.odt
│   ├── Curriculum_Vitae_Carsten_Dingendahl_EN_2024-01-08.pdf
│   ├── Curriculum_Vitae_Carsten_Dingendahl_EN_2024-01-09.docx
│   ├── Curriculum_Vitae_Carsten_Dingendahl_EN_2024-01-09.odt
│   ├── Curriculum_Vitae_Carsten_Dingendahl_EN_2024-01-09.pdf
│   ├── Curriculum_Vitae_Carsten_Dingendahl_EN_2024-01-11.docx
│   ├── Curriculum_Vitae_Carsten_Dingendahl_EN_2024-01-11.odt
│   ├── Curriculum_Vitae_Carsten_Dingendahl_EN_2024-01-11.pdf
│   ├── Curriculum_Vitae_Carsten_Dingendahl_EN_2024-01-12.docx
│   ├── Curriculum_Vitae_Carsten_Dingendahl_EN_2024-01-12.odt
│   ├── Curriculum_Vitae_Carsten_Dingendahl_EN_2024-01-12.pdf
│   ├── Curriculum_Vitae_Carsten_Dingendahl_EN_2024-01-15.docx
│   ├── Curriculum_Vitae_Carsten_Dingendahl_EN_2024-01-15.odt
│   ├── Curriculum_Vitae_Carsten_Dingendahl_EN_2024-01-15.pdf
│   ├── Curriculum_Vitae_Carsten_Dingendahl_EN_2024-01-17.docx
│   ├── Curriculum_Vitae_Carsten_Dingendahl_EN_2024-01-17.odt
│   ├── Curriculum_Vitae_Carsten_Dingendahl_EN_2024-01-17.pdf
│   ├── Curriculum_Vitae_Carsten_Dingendahl_EN_2024-01-18.docx
│   ├── Curriculum_Vitae_Carsten_Dingendahl_EN_2024-01-18.odt
│   ├── Curriculum_Vitae_Carsten_Dingendahl_EN_2024-01-18.pdf
│   ├── Curriculum_Vitae_Carsten_Dingendahl_EN_2024-01-19.docx
│   ├── Curriculum_Vitae_Carsten_Dingendahl_EN_2024-01-19.odt
│   ├── Curriculum_Vitae_Carsten_Dingendahl_EN_2024-01-19.pdf
│   ├── Curriculum_Vitae_Carsten_Dingendahl_EN_2024-01-20.docx
│   ├── Curriculum_Vitae_Carsten_Dingendahl_EN_2024-01-20.odt
│   ├── Curriculum_Vitae_Carsten_Dingendahl_EN_2024-01-20.pdf
│   ├── Curriculum_Vitae_Carsten_Dingendahl_EN_2024-01-22.docx
│   ├── Curriculum_Vitae_Carsten_Dingendahl_EN_2024-01-22.odt
│   ├── Curriculum_Vitae_Carsten_Dingendahl_EN_2024-01-22.pdf
│   ├── Curriculum_Vitae_Carsten_Dingendahl_EN_2024-01-23.docx
│   ├── Curriculum_Vitae_Carsten_Dingendahl_EN_2024-01-23.odt
│   ├── Curriculum_Vitae_Carsten_Dingendahl_EN_2024-01-23.pdf
│   ├── Curriculum_Vitae_Carsten_Dingendahl_EN_2024-01-26.docx
│   ├── Curriculum_Vitae_Carsten_Dingendahl_EN_2024-01-26.odt
│   ├── Curriculum_Vitae_Carsten_Dingendahl_EN_2024-01-26.pdf
│   ├── Curriculum_Vitae_Carsten_Dingendahl_EN_2024-01-27.docx
│   ├── Curriculum_Vitae_Carsten_Dingendahl_EN_2024-01-27.odt
│   ├── Curriculum_Vitae_Carsten_Dingendahl_EN_2024-01-27.pdf
│   ├── Curriculum_Vitae_Carsten_Dingendahl_EN_2024-01-28.docx
│   ├── Curriculum_Vitae_Carsten_Dingendahl_EN_2024-01-28.odt
│   ├── Curriculum_Vitae_Carsten_Dingendahl_EN_2024-01-28.pdf
│   ├── Curriculum_Vitae_Carsten_Dingendahl_EN_2024-01-31.docx
│   ├── Curriculum_Vitae_Carsten_Dingendahl_EN_2024-01-31.odt
│   ├── Curriculum_Vitae_Carsten_Dingendahl_EN_2024-01-31.pdf
│   ├── Curriculum_Vitae_Carsten_Dingendahl_EN_2024-02-03.docx
│   ├── Curriculum_Vitae_Carsten_Dingendahl_EN_2024-02-03.odt
│   ├── Curriculum_Vitae_Carsten_Dingendahl_EN_2024-02-03.pdf
│   ├── Curriculum_Vitae_Carsten_Dingendahl_EN_2024-02-05.docx
│   ├── Curriculum_Vitae_Carsten_Dingendahl_EN_2024-02-05.odt
│   ├── Curriculum_Vitae_Carsten_Dingendahl_EN_2024-02-05.pdf
│   ├── Curriculum_Vitae_Carsten_Dingendahl_EN_2024-02-07.docx
│   ├── Curriculum_Vitae_Carsten_Dingendahl_EN_2024-02-07.odt
│   ├── Curriculum_Vitae_Carsten_Dingendahl_EN_2024-02-07.pdf
│   ├── Curriculum_Vitae_Carsten_Dingendahl_EN_2024-02-09.docx
│   ├── Curriculum_Vitae_Carsten_Dingendahl_EN_2024-02-09.odt
│   ├── Curriculum_Vitae_Carsten_Dingendahl_EN_2024-02-09.pdf
│   ├── Curriculum_Vitae_Carsten_Dingendahl_EN_2024-02-10.docx
│   ├── Curriculum_Vitae_Carsten_Dingendahl_EN_2024-02-10.odt
│   ├── Curriculum_Vitae_Carsten_Dingendahl_EN_2024-02-10.pdf
│   ├── Curriculum_Vitae_Carsten_Dingendahl_EN_2024-02-14.docx
│   ├── Curriculum_Vitae_Carsten_Dingendahl_EN_2024-02-14.odt
│   ├── Curriculum_Vitae_Carsten_Dingendahl_EN_2024-02-14.pdf
│   ├── Curriculum_Vitae_Carsten_Dingendahl_EN_2024-02-15.docx
│   ├── Curriculum_Vitae_Carsten_Dingendahl_EN_2024-02-15.odt
│   ├── Curriculum_Vitae_Carsten_Dingendahl_EN_2024-02-15.pdf
│   ├── Curriculum_Vitae_Carsten_Dingendahl_EN_2024-02-20.docx
│   ├── Curriculum_Vitae_Carsten_Dingendahl_EN_2024-02-20.odt
│   ├── Curriculum_Vitae_Carsten_Dingendahl_EN_2024-02-20.pdf
│   ├── Curriculum_Vitae_Carsten_Dingendahl_EN_2024-02-22.docx
│   ├── Curriculum_Vitae_Carsten_Dingendahl_EN_2024-02-22.odt
│   ├── Curriculum_Vitae_Carsten_Dingendahl_EN_2024-02-22.pdf
│   ├── Curriculum_Vitae_Carsten_Dingendahl_EN_2024-02-25.docx
│   ├── Curriculum_Vitae_Carsten_Dingendahl_EN_2024-02-25.odt
│   ├── Curriculum_Vitae_Carsten_Dingendahl_EN_2024-02-25.pdf
│   ├── Curriculum_Vitae_Carsten_Dingendahl_EN_2024-02-26.docx
│   ├── Curriculum_Vitae_Carsten_Dingendahl_EN_2024-02-26.odt
│   ├── Curriculum_Vitae_Carsten_Dingendahl_EN_2024-02-26.pdf
│   ├── Curriculum_Vitae_Carsten_Dingendahl_EN_2024-03-07.docx
│   ├── Curriculum_Vitae_Carsten_Dingendahl_EN_2024-03-07.odt
│   ├── Curriculum_Vitae_Carsten_Dingendahl_EN_2024-03-07.pdf
│   ├── Curriculum_Vitae_Carsten_Dingendahl_EN_2024-03-08.docx
│   ├── Curriculum_Vitae_Carsten_Dingendahl_EN_2024-03-08.odt
│   ├── Curriculum_Vitae_Carsten_Dingendahl_EN_2024-03-08.pdf
│   ├── Curriculum_Vitae_Carsten_Dingendahl_EN_2024-03-10.docx
│   ├── Curriculum_Vitae_Carsten_Dingendahl_EN_2024-03-10.odt
│   ├── Curriculum_Vitae_Carsten_Dingendahl_EN_2024-03-10.pdf
│   ├── Curriculum_Vitae_Carsten_Dingendahl_EN_2024-03-11.docx
│   ├── Curriculum_Vitae_Carsten_Dingendahl_EN_2024-03-11.odt
│   ├── Curriculum_Vitae_Carsten_Dingendahl_EN_2024-03-11.pdf
│   ├── Curriculum_Vitae_Carsten_Dingendahl_EN_2024-03-13.docx
│   ├── Curriculum_Vitae_Carsten_Dingendahl_EN_2024-03-13.odt
│   ├── Curriculum_Vitae_Carsten_Dingendahl_EN_2024-03-13.pdf
│   ├── Curriculum_Vitae_Carsten_Dingendahl_EN_2024-03-18.docx
│   ├── Curriculum_Vitae_Carsten_Dingendahl_EN_2024-03-18.odt
│   ├── Curriculum_Vitae_Carsten_Dingendahl_EN_2024-03-18.pdf
│   ├── Curriculum_Vitae_Carsten_Dingendahl_EN_2024-03-20.docx
│   ├── Curriculum_Vitae_Carsten_Dingendahl_EN_2024-03-20.odt
│   ├── Curriculum_Vitae_Carsten_Dingendahl_EN_2024-03-20.pdf
│   ├── Curriculum_Vitae_Carsten_Dingendahl_EN_2024-03-23.docx
│   ├── Curriculum_Vitae_Carsten_Dingendahl_EN_2024-03-23.odt
│   ├── Curriculum_Vitae_Carsten_Dingendahl_EN_2024-03-23.pdf
│   ├── Curriculum_Vitae_Carsten_Dingendahl_EN_2024-03-24.docx
│   ├── Curriculum_Vitae_Carsten_Dingendahl_EN_2024-03-24.odt
│   ├── Curriculum_Vitae_Carsten_Dingendahl_EN_2024-03-24.pdf
│   ├── Curriculum_Vitae_Carsten_Dingendahl_EN_2024-03-26.docx
│   ├── Curriculum_Vitae_Carsten_Dingendahl_EN_2024-03-26.odt
│   ├── Curriculum_Vitae_Carsten_Dingendahl_EN_2024-03-26.pdf
│   ├── Curriculum_Vitae_Carsten_Dingendahl_EN_2024-03-27.docx
│   ├── Curriculum_Vitae_Carsten_Dingendahl_EN_2024-03-27.odt
│   ├── Curriculum_Vitae_Carsten_Dingendahl_EN_2024-03-27.pdf
│   ├── Curriculum_Vitae_Carsten_Dingendahl_EN_2024-03-30.docx
│   ├── Curriculum_Vitae_Carsten_Dingendahl_EN_2024-03-30.odt
│   ├── Curriculum_Vitae_Carsten_Dingendahl_EN_2024-03-30.pdf
│   ├── Curriculum_Vitae_Carsten_Dingendahl_EN_2024-04-03.docx
│   ├── Curriculum_Vitae_Carsten_Dingendahl_EN_2024-04-03.odt
│   ├── Curriculum_Vitae_Carsten_Dingendahl_EN_2024-04-03.pdf
│   ├── Curriculum_Vitae_Carsten_Dingendahl_EN_2024-04-04.docx
│   ├── Curriculum_Vitae_Carsten_Dingendahl_EN_2024-04-04.odt
│   ├── Curriculum_Vitae_Carsten_Dingendahl_EN_2024-04-04.pdf
│   ├── Curriculum_Vitae_Carsten_Dingendahl_EN_2024-04-06.docx
│   ├── Curriculum_Vitae_Carsten_Dingendahl_EN_2024-04-06.odt
│   ├── Curriculum_Vitae_Carsten_Dingendahl_EN_2024-04-06.pdf
│   ├── Curriculum_Vitae_Carsten_Dingendahl_EN_2024-04-07.docx
│   ├── Curriculum_Vitae_Carsten_Dingendahl_EN_2024-04-07.odt
│   ├── Curriculum_Vitae_Carsten_Dingendahl_EN_2024-04-07.pdf
│   ├── Curriculum_Vitae_Carsten_Dingendahl_EN_2024-04-08.docx
│   ├── Curriculum_Vitae_Carsten_Dingendahl_EN_2024-04-08.odt
│   ├── Curriculum_Vitae_Carsten_Dingendahl_EN_2024-04-08.pdf
│   ├── Curriculum_Vitae_Carsten_Dingendahl_EN_2024-04-09.docx
│   ├── Curriculum_Vitae_Carsten_Dingendahl_EN_2024-04-09.odt
│   ├── Curriculum_Vitae_Carsten_Dingendahl_EN_2024-04-09.pdf
│   ├── Curriculum_Vitae_Carsten_Dingendahl_EN_2024-04-10.docx
│   ├── Curriculum_Vitae_Carsten_Dingendahl_EN_2024-04-10.odt
│   ├── Curriculum_Vitae_Carsten_Dingendahl_EN_2024-04-10.pdf
│   ├── Curriculum_Vitae_Carsten_Dingendahl_EN_2024-04-11.docx
│   ├── Curriculum_Vitae_Carsten_Dingendahl_EN_2024-04-11.odt
│   ├── Curriculum_Vitae_Carsten_Dingendahl_EN_2024-04-11.pdf
│   ├── Curriculum_Vitae_Carsten_Dingendahl_EN_2024-04-12.docx
│   ├── Curriculum_Vitae_Carsten_Dingendahl_EN_2024-04-12.odt
│   ├── Curriculum_Vitae_Carsten_Dingendahl_EN_2024-04-12.pdf
│   ├── Curriculum_Vitae_Carsten_Dingendahl_EN_2024-04-13.docx
│   ├── Curriculum_Vitae_Carsten_Dingendahl_EN_2024-04-13.odt
│   ├── Curriculum_Vitae_Carsten_Dingendahl_EN_2024-04-13.pdf
│   ├── Curriculum_Vitae_Carsten_Dingendahl_EN_2024-04-14.docx
│   ├── Curriculum_Vitae_Carsten_Dingendahl_EN_2024-04-14.odt
│   ├── Curriculum_Vitae_Carsten_Dingendahl_EN_2024-04-14.pdf
│   ├── Curriculum_Vitae_Carsten_Dingendahl_EN_2024-04-20.docx
│   ├── Curriculum_Vitae_Carsten_Dingendahl_EN_2024-04-20.odt
│   ├── Curriculum_Vitae_Carsten_Dingendahl_EN_2024-04-20.pdf
│   ├── Curriculum_Vitae_Carsten_Dingendahl_EN_2024-04-21.docx
│   ├── Curriculum_Vitae_Carsten_Dingendahl_EN_2024-04-21.odt
│   ├── Curriculum_Vitae_Carsten_Dingendahl_EN_2024-04-21.pdf
│   ├── Curriculum_Vitae_Carsten_Dingendahl_EN_2024-04-22.docx
│   ├── Curriculum_Vitae_Carsten_Dingendahl_EN_2024-04-22.odt
│   ├── Curriculum_Vitae_Carsten_Dingendahl_EN_2024-04-22.pdf
│   ├── Curriculum_Vitae_Carsten_Dingendahl_EN_2024-04-24.docx
│   ├── Curriculum_Vitae_Carsten_Dingendahl_EN_2024-04-24.odt
│   ├── Curriculum_Vitae_Carsten_Dingendahl_EN_2024-04-24.pdf
│   ├── Curriculum_Vitae_Carsten_Dingendahl_EN_2024-04-25.docx
│   ├── Curriculum_Vitae_Carsten_Dingendahl_EN_2024-04-25.odt
│   ├── Curriculum_Vitae_Carsten_Dingendahl_EN_2024-04-25.pdf
│   ├── Curriculum_Vitae_Carsten_Dingendahl_EN_2024-04-26.docx
│   ├── Curriculum_Vitae_Carsten_Dingendahl_EN_2024-04-26.odt
│   ├── Curriculum_Vitae_Carsten_Dingendahl_EN_2024-04-26.pdf
│   ├── Curriculum_Vitae_Carsten_Dingendahl_EN_2024-04-27.docx
│   ├── Curriculum_Vitae_Carsten_Dingendahl_EN_2024-04-27.odt
│   ├── Curriculum_Vitae_Carsten_Dingendahl_EN_2024-04-27.pdf
│   ├── Curriculum_Vitae_Carsten_Dingendahl_EN_2024-04-28.docx
│   ├── Curriculum_Vitae_Carsten_Dingendahl_EN_2024-04-28.odt
│   ├── Curriculum_Vitae_Carsten_Dingendahl_EN_2024-04-28.pdf
│   ├── Curriculum_Vitae_Carsten_Dingendahl_EN_2024-04-29.docx
│   ├── Curriculum_Vitae_Carsten_Dingendahl_EN_2024-04-29.odt
│   ├── Curriculum_Vitae_Carsten_Dingendahl_EN_2024-04-29.pdf
│   ├── Curriculum_Vitae_Carsten_Dingendahl_EN_2024-04-30.docx
│   ├── Curriculum_Vitae_Carsten_Dingendahl_EN_2024-04-30.odt
│   ├── Curriculum_Vitae_Carsten_Dingendahl_EN_2024-04-30.pdf
│   ├── Curriculum_Vitae_Carsten_Dingendahl_EN_2024-05-04.docx
│   ├── Curriculum_Vitae_Carsten_Dingendahl_EN_2024-05-04.odt
│   ├── Curriculum_Vitae_Carsten_Dingendahl_EN_2024-05-04.pdf
│   ├── Curriculum_Vitae_Carsten_Dingendahl_EN_2024-05-05.docx
│   ├── Curriculum_Vitae_Carsten_Dingendahl_EN_2024-05-05.odt
│   ├── Curriculum_Vitae_Carsten_Dingendahl_EN_2024-05-05.pdf
│   ├── Curriculum_Vitae_Carsten_Dingendahl_EN_2024-05-15.docx
│   ├── Curriculum_Vitae_Carsten_Dingendahl_EN_2024-05-15.odt
│   ├── Curriculum_Vitae_Carsten_Dingendahl_EN_2024-05-15.pdf
│   ├── Curriculum_Vitae_Carsten_Dingendahl_EN_2024-05-16.docx
│   ├── Curriculum_Vitae_Carsten_Dingendahl_EN_2024-05-16.odt
│   ├── Curriculum_Vitae_Carsten_Dingendahl_EN_2024-05-16.pdf
│   ├── Curriculum_Vitae_Carsten_Dingendahl_EN_2024-05-17.docx
│   ├── Curriculum_Vitae_Carsten_Dingendahl_EN_2024-05-17.odt
│   ├── Curriculum_Vitae_Carsten_Dingendahl_EN_2024-05-17.pdf
│   ├── Curriculum_Vitae_Carsten_Dingendahl_EN_2024-05-18.docx
│   ├── Curriculum_Vitae_Carsten_Dingendahl_EN_2024-05-18.odt
│   ├── Curriculum_Vitae_Carsten_Dingendahl_EN_2024-05-18.pdf
│   ├── Curriculum_Vitae_Carsten_Dingendahl_EN_2024-05-19.docx
│   ├── Curriculum_Vitae_Carsten_Dingendahl_EN_2024-05-19.odt
│   ├── Curriculum_Vitae_Carsten_Dingendahl_EN_2024-05-19.pdf
│   ├── Curriculum_Vitae_Carsten_Dingendahl_EN_2024-05-22.docx
│   ├── Curriculum_Vitae_Carsten_Dingendahl_EN_2024-05-22.odt
│   ├── Curriculum_Vitae_Carsten_Dingendahl_EN_2024-05-22.pdf
│   ├── Curriculum_Vitae_Carsten_Dingendahl_EN_2024-05-23.docx
│   ├── Curriculum_Vitae_Carsten_Dingendahl_EN_2024-05-23.odt
│   ├── Curriculum_Vitae_Carsten_Dingendahl_EN_2024-05-23.pdf
│   ├── Curriculum_Vitae_Carsten_Dingendahl_EN_2024-05-24.docx
│   ├── Curriculum_Vitae_Carsten_Dingendahl_EN_2024-05-24.odt
│   ├── Curriculum_Vitae_Carsten_Dingendahl_EN_2024-05-24.pdf
│   ├── Curriculum_Vitae_Carsten_Dingendahl_EN_2024-05-27.docx
│   ├── Curriculum_Vitae_Carsten_Dingendahl_EN_2024-05-27.odt
│   ├── Curriculum_Vitae_Carsten_Dingendahl_EN_2024-05-27.pdf
│   ├── Curriculum_Vitae_Carsten_Dingendahl_EN_2024-05-28.docx
│   ├── Curriculum_Vitae_Carsten_Dingendahl_EN_2024-05-28.odt
│   ├── Curriculum_Vitae_Carsten_Dingendahl_EN_2024-05-28.pdf
│   ├── Curriculum_Vitae_Carsten_Dingendahl_EN_2024-05-29.docx
│   ├── Curriculum_Vitae_Carsten_Dingendahl_EN_2024-05-29.odt
│   ├── Curriculum_Vitae_Carsten_Dingendahl_EN_2024-05-29.pdf
│   ├── Curriculum_Vitae_Carsten_Dingendahl_EN_2024-05-30.docx
│   ├── Curriculum_Vitae_Carsten_Dingendahl_EN_2024-05-30.odt
│   ├── Curriculum_Vitae_Carsten_Dingendahl_EN_2024-05-30.pdf
│   ├── Curriculum_Vitae_Carsten_Dingendahl_EN_2024-05-31.docx
│   ├── Curriculum_Vitae_Carsten_Dingendahl_EN_2024-05-31.odt
│   ├── Curriculum_Vitae_Carsten_Dingendahl_EN_2024-05-31.pdf
│   ├── Curriculum_Vitae_Carsten_Dingendahl_EN_2024-06-03.docx
│   ├── Curriculum_Vitae_Carsten_Dingendahl_EN_2024-06-03.odt
│   ├── Curriculum_Vitae_Carsten_Dingendahl_EN_2024-06-03.pdf
│   ├── Curriculum_Vitae_Carsten_Dingendahl_EN_2024-06-05.docx
│   ├── Curriculum_Vitae_Carsten_Dingendahl_EN_2024-06-05.odt
│   ├── Curriculum_Vitae_Carsten_Dingendahl_EN_2024-06-05.pdf
│   ├── Curriculum_Vitae_Carsten_Dingendahl_EN_2024-06-06.docx
│   ├── Curriculum_Vitae_Carsten_Dingendahl_EN_2024-06-06.odt
│   ├── Curriculum_Vitae_Carsten_Dingendahl_EN_2024-06-06.pdf
│   ├── Curriculum_Vitae_Carsten_Dingendahl_EN_2024-06-07.docx
│   ├── Curriculum_Vitae_Carsten_Dingendahl_EN_2024-06-07.odt
│   ├── Curriculum_Vitae_Carsten_Dingendahl_EN_2024-06-07.pdf
│   ├── Curriculum_Vitae_Carsten_Dingendahl_EN_2024-06-10.docx
│   ├── Curriculum_Vitae_Carsten_Dingendahl_EN_2024-06-10.odt
│   ├── Curriculum_Vitae_Carsten_Dingendahl_EN_2024-06-10.pdf
│   ├── Curriculum_Vitae_Carsten_Dingendahl_EN_2024-06-11.docx
│   ├── Curriculum_Vitae_Carsten_Dingendahl_EN_2024-06-11.odt
│   ├── Curriculum_Vitae_Carsten_Dingendahl_EN_2024-06-11.pdf
│   ├── Curriculum_Vitae_Carsten_Dingendahl_EN_2024-06-17.docx
│   ├── Curriculum_Vitae_Carsten_Dingendahl_EN_2024-06-17.odt
│   ├── Curriculum_Vitae_Carsten_Dingendahl_EN_2024-06-18.docx
│   └── Curriculum_Vitae_Carsten_Dingendahl_EN_2024-06-18.odt
└── tools

11 directories, 645 files
